…
df_2 = homcide_new%>%
  filter(disposition %in% c("Closed without arrest", "Open/No arrest"))%>%
  group_by(city_state)%>%
  summarize(unsolved_number = n())

homcide_by_city = left_join(df_1, df_2, by = "city_state")
homcide_by_city[is.na(homcide_by_city)] = 0
homcide_by_city
```

    ## # A tibble: 51 x 3
    ##    city_state     total_number unsolved_number
    ##    <chr>                 <int>           <dbl>
    ##  1 Albuquerque,NM          378             146
    ##  2 Atlanta,GA              973             373
    ##  3 Baltimore,MD           2827            1825
    ##  4 Baton Rouge,LA          424             196
    ##  5 Birmingham,AL           800             347
    ##  6 Boston,MA               614             310
    ##  7 Buffalo,NY              521             319
    ##  8 Charlotte,NC            687             206
    ##  9 Chicago,IL             5535            4073
    ## 10 Cincinnati,OH           694             309
    ## # ... with 41 more rows
